data/tek0001CH2.csv

Model,MDO3012
Firmware Version,1.26

Waveform Type,ANALOG
Point Format,Y
Horizontal Units,s
Horizontal Scale,0.0002
Horizontal Delay,0
Sample Interval,2e-07
Record Length,10000
Gating,0.0% to 100.0%
Probe Attenuation,1
Vertical Units,V
Vertical Offset,0
Vertical Scale,0.002
Vertical Position,-0.26
,
,
,
Label,
TIME,CH2
-1.0000e-03,0.00168031
-9.9980e-04,0.00167375
-9.9960e-04,0.00165625
-9.9940e-04,0.00192594
-9.9920e-04,0.00179281
-9.9900e-04,0.00175094
-9.9880e-04,0.00139531
-9.9860e-04,0.0017325
-9.9840e-04,0.00161031
-9.9820e-04,0.00200937
-9.9800e-04,0.00186563
-9.9780e-04,0.00174781
-9.9760e-04,0.001705
-9.9740e-04,0.00200531
-9.9720e-04,0.00175094
-9.9700e-04,0.00188438
-9.9680e-04,0.00181781
-9.9660e-04,0.00182719
-9.9640e-04,0.00176813
-9.9620e-04,0.00173594
-9.9600e-04,0.001635
-9.9580e-04,0.00168594
-9.9560e-04,0.00171656
-9.9540e-04,0.0020225
-9.9520e-04,0.00195469
-9.9500e-04,0.00157906
-9.9480e-04,0.00177906
-9.9460e-04,0.00161656
-9.9440e-04,0.00203938
-9.9420e-04,0.00163281
-9.9400e-04,0.00189281
-9.9380e-04,0.00179344
-9.9360e-04,0.00158469
-9.9340e-04,0.00180344
-9.9320e-04,0.00178938
-9.9300e-04,0.00158156
-9.9280e-04,0.00165563
-9.9260e-04,0.00182969
-9.9240e-04,0.00162406
-9.9220e-04,0.00171281
-9.9200e-04,0.00168313
-9.9180e-04,0.00178063
-9.9160e-04,0.0017875
-9.9140e-04,0.00190469
-9.9120e-04,0.00182188
-9.9100e-04,0.00194969
-9.9080e-04,0.00211125
-9.9060e-04,0.00172406
-9.9040e-04,0.00180281
-9.9020e-04,0.00169
-9.9000e-04,0.00183563
-9.8980e-04,0.00154844
-9.8960e-04,0.00186375
-9.8940e-04,0.00178969
-9.8920e-04,0.00168031
-9.8900e-04,0.00174563
-9.8880e-04,0.00207156
-9.8860e-04,0.00181719
-9.8840e-04,0.00191031
-9.8820e-04,0.00185938
-9.8800e-04,0.00178938
-9.8780e-04,0.00177
-9.8760e-04,0.00178438
-9.8740e-04,0.00184313
-9.8720e-04,0.00145969
-9.8700e-04,0.00172031
-9.8680e-04,0.00202375
-9.8660e-04,0.00195469
-9.8640e-04,0.00145969
-9.8620e-04,0.00174094
-9.8600e-04,0.00179031
-9.8580e-04,0.00201
-9.8560e-04,0.00184219
-9.8540e-04,0.00160531
-9.8520e-04,0.00188531
-9.8500e-04,0.00180719
-9.8480e-04,0.00179875
-9.8460e-04,0.00166656
-9.8440e-04,0.00186094
-9.8420e-04,0.00179625
-9.8400e-04,0.00177406
-9.8380e-04,0.0019575
-9.8360e-04,0.00191063
-9.8340e-04,0.00148438
-9.8320e-04,0.00176438
-9.8300e-04,0.0019175
-9.8280e-04,0.00165906
-9.8260e-04,0.001775
-9.8240e-04,0.00171938
-9.8220e-04,0.00180313
-9.8200e-04,0.00186313
-9.8180e-04,0.00165156
-9.8160e-04,0.00195719
-9.8140e-04,0.00188813
-9.8120e-04,0.00165063
-9.8100e-04,0.00156656
-9.8080e-04,0.00173563
-9.8060e-04,0.00192906
-9.8040e-04,0.00160281
-9.8020e-04,0.00210938
-9.8000e-04,0.0017575
-9.7980e-04,0.00149906
-9.7960e-04,0.00180063
-9.7940e-04,0.00186969
-9.7920e-04,0.00180563
-9.7900e-04,0.00177563
-9.7880e-04,0.00190438
-9.7860e-04,0.00155063
-9.7840e-04,0.00186063
-9.7820e-04,0.00181688
-9.7800e-04,0.00175531
-9.7780e-04,0.0018325
-9.7760e-04,0.00162063
-9.7740e-04,0.00184625
-9.7720e-04,0.00161156
-9.7700e-04,0.001865
-9.7680e-04,0.00177156
-9.7660e-04,0.00170906
-9.7640e-04,0.00178531
-9.7620e-04,0.00178031
-9.7600e-04,0.00170813
-9.7580e-04,0.00172781
-9.7560e-04,0.00161531
-9.7540e-04,0.00154125
-9.7520e-04,0.00190875
-9.7500e-04,0.00168875
-9.7480e-04,0.00156188
-9.7460e-04,0.00171375
-9.7440e-04,0.00162031
-9.7420e-04,0.00197281
-9.7400e-04,0.00197219
-9.7380e-04,0.00140531
-9.7360e-04,0.0014975
-9.7340e-04,0.00184281
-9.7320e-04,0.00177875
-9.7300e-04,0.00182219
-9.7280e-04,0.00165875
-9.7260e-04,0.00188531
-9.7240e-04,0.00186344
-9.7220e-04,0.00172906
-9.7200e-04,0.00188688
-9.7180e-04,0.00188688
-9.7160e-04,0.0020025
-9.7140e-04,0.00172219
-9.7120e-04,0.00150875
-9.7100e-04,0.00163188
-9.7080e-04,0.00144906
-9.7060e-04,0.00170031
-9.7040e-04,0.00165875
-9.7020e-04,0.00199438
-9.7000e-04,0.00160563
-9.6980e-04,0.0018375
-9.6960e-04,0.001825
-9.6940e-04,0.00184281
-9.6920e-04,0.00188688
-9.6900e-04,0.00182406
-9.6880e-04,0.00192281
-9.6860e-04,0.00168938
-9.6840e-04,0.00163656
-9.6820e-04,0.00172594
-9.6800e-04,0.00183031
-9.6780e-04,0.00196219
-9.6760e-04,0.00175344
-9.6740e-04,0.00176156
-9.6720e-04,0.00183406
-9.6700e-04,0.00169844
-9.6680e-04,0.00207063
-9.6660e-04,0.00186625
-9.6640e-04,0.00162125
-9.6620e-04,0.00175031
-9.6600e-04,0.00178594
-9.6580e-04,0.00165344
-9.6560e-04,0.00164125
-9.6540e-04,0.00164938
-9.6520e-04,0.00170531
-9.6500e-04,0.00184344
-9.6480e-04,0.0015375
-9.6460e-04,0.00159906
-9.6440e-04,0.00185656
-9.6420e-04,0.00144969
-9.6400e-04,0.00172813
-9.6380e-04,0.00177688
-9.6360e-04,0.00172906
-9.6340e-04,0.00156
-9.6320e-04,0.00155
-9.6300e-04,0.00171844
-9.6280e-04,0.00182563
-9.6260e-04,0.00179625
-9.6240e-04,0.001425
-9.6220e-04,0.00163313
-9.6200e-04,0.00173094
-9.6180e-04,0.00157906
-9.6160e-04,0.00176375
-9.6140e-04,0.0016675
-9.6120e-04,0.00159969
-9.6100e-04,0.00181125
-9.6080e-04,0.0018125
-9.6060e-04,0.00159219
-9.6040e-04,0.0017325
-9.6020e-04,0.00178375
-9.6000e-04,0.00173531
-9.5980e-04,0.001695
-9.5960e-04,0.00175156
-9.5940e-04,0.00187969
-9.5920e-04,0.00164625
-9.5900e-04,0.00173875
-9.5880e-04,0.00166531
-9.5860e-04,0.00183063
-9.5840e-04,0.00164031
-9.5820e-04,0.00172063
-9.5800e-04,0.00177313
-9.5780e-04,0.00163844
-9.5760e-04,0.00153906
-9.5740e-04,0.00176063
-9.5720e-04,0.00172531
-9.5700e-04,0.00173188
-9.5680e-04,0.00169406
-9.5660e-04,0.00208719
-9.5640e-04,0.0015275
-9.5620e-04,0.00154875
-9.5600e-04,0.00185
-9.5580e-04,0.00179031
-9.5560e-04,0.00184063
-9.5540e-04,0.00169719
-9.5520e-04,0.00164281
-9.5500e-04,0.0016275
-9.5480e-04,0.00169719
-9.5460e-04,0.00172813
-9.5440e-04,0.00178156
-9.5420e-04,0.00150906
-9.5400e-04,0.00163469
-9.5380e-04,0.001575
-9.5360e-04,0.00178969
-9.5340e-04,0.00168938
-9.5320e-04,0.00173906
-9.5300e-04,0.00150656
-9.5280e-04,0.00177031
-9.5260e-04,0.00166438
-9.5240e-04,0.00168031
-9.5220e-04,0.001715
-9.5200e-04,0.00167438
-9.5180e-04,0.00161625
-9.5160e-04,0.00178031
-9.5140e-04,0.00194531
-9.5120e-04,0.00190656
-9.5100e-04,0.0018575
-9.5080e-04,0.00185063
-9.5060e-04,0.00172813
-9.5040e-04,0.00176625
-9.5020e-04,0.00185625
-9.5000e-04,0.00166281
-9.4980e-04,0.00170813
-9.4960e-04,0.00147281
-9.4940e-04,0.00185688
-9.4920e-04,0.00146438
-9.4900e-04,0.00158938
-9.4880e-04,0.00194219
-9.4860e-04,0.00186563
-9.4840e-04,0.001975
-9.4820e-04,0.00174531
-9.4800e-04,0.00186188
-9.4780e-04,0.00164
-9.4760e-04,0.00184531
-9.4740e-04,0.00192781
-9.4720e-04,0.00162844
-9.4700e-04,0.00177969
-9.4680e-04,0.00171563
-9.4660e-04,0.00174625
-9.4640e-04,0.00183844
-9.4620e-04,0.00176969
-9.4600e-04,0.00173531
-9.4580e-04,0.00165313
-9.4560e-04,0.001695
-9.4540e-04,0.00185469
-9.4520e-04,0.00166406
-9.4500e-04,0.00183438
-9.4480e-04,0.00180031
-9.4460e-04,0.00178063
-9.4440e-04,0.00193281
-9.4420e-04,0.001875
-9.4400e-04,0.00178656
-9.4380e-04,0.00197781
-9.4360e-04,0.00170656
-9.4340e-04,0.00207656
-9.4320e-04,0.0016625
-9.4300e-04,0.00203219
-9.4280e-04,0.00203
-9.4260e-04,0.00161938
-9.4240e-04,0.00180031
-9.4220e-04,0.00180813
-9.4200e-04,0.0016675
-9.4180e-04,0.00177656
-9.4160e-04,0.00161188
-9.4140e-04,0.00168
-9.4120e-04,0.00172938
-9.4100e-04,0.00196563
-9.4080e-04,0.00176906
-9.4060e-04,0.00184063
-9.4040e-04,0.0016575
-9.4020e-04,0.00185938
-9.4000e-04,0.00166594
-9.3980e-04,0.00157906
-9.3960e-04,0.00204156
-9.3940e-04,0.00173438
-9.3920e-04,0.00182281
-9.3900e-04,0.00186
-9.3880e-04,0.00177281
-9.3860e-04,0.0015
-9.3840e-04,0.00175844
-9.3820e-04,0.00178219
-9.3800e-04,0.00183406
-9.3780e-04,0.00176
-9.3760e-04,0.00192125
-9.3740e-04,0.00203938
-9.3720e-04,0.00185094
-9.3700e-04,0.0015425
-9.3680e-04,0.00182688
-9.3660e-04,0.00180281
-9.3640e-04,0.0015975
-9.3620e-04,0.00189438
-9.3600e-04,0.00187813
-9.3580e-04,0.00187031
-9.3560e-04,0.00190125
-9.3540e-04,0.00175469
-9.3520e-04,0.00165719
-9.3500e-04,0.00169656
-9.3480e-04,0.00181156
-9.3460e-04,0.00184531
-9.3440e-04,0.00178938
-9.3420e-04,0.00167875
-9.3400e-04,0.00186281
-9.3380e-04,0.00166875
-9.3360e-04,0.00175563
-9.3340e-04,0.00170563
-9.3320e-04,0.00178188
-9.3300e-04,0.00166938
-9.3280e-04,0.0017375
-9.3260e-04,0.00164188
-9.3240e-04,0.00177469
-9.3220e-04,0.00193906
-9.3200e-04,0.00192063
-9.3180e-04,0.00197562
-9.3160e-04,0.00190469
-9.3140e-04,0.00176531
-9.3120e-04,0.00173156
-9.3100e-04,0.00159406
-9.3080e-04,0.00194719
-9.3060e-04,0.00181094
-9.3040e-04,0.00183156
-9.3020e-04,0.00194125
-9.3000e-04,0.0016875
-9.2980e-04,0.00190875
-9.2960e-04,0.00170688
-9.2940e-04,0.00172219
-9.2920e-04,0.00168063
-9.2900e-04,0.00171844
-9.2880e-04,0.00196313
-9.2860e-04,0.00194313
-9.2840e-04,0.00174031
-9.2820e-04,0.00166188
-9.2800e-04,0.00179563
-9.2780e-04,0.00177969
-9.2760e-04,0.00152406
-9.2740e-04,0.00185594
-9.2720e-04,0.00172375
-9.2700e-04,0.00162344
-9.2680e-04,0.00168406
-9.2660e-04,0.00207656
-9.2640e-04,0.00133594
-9.2620e-04,0.00181156
-9.2600e-04,0.00182719
-9.2580e-04,0.00158375
-9.2560e-04,0.0019175
-9.2540e-04,0.00174219
-9.2520e-04,0.0019425
-9.2500e-04,0.00149875
-9.2480e-04,0.00179313
-9.2460e-04,0.00177656
-9.2440e-04,0.00185313
-9.2420e-04,0.00188281
-9.2400e-04,0.00172375
-9.2380e-04,0.00179375
-9.2360e-04,0.00184156
-9.2340e-04,0.00153813
-9.2320e-04,0.00177875
-9.2300e-04,0.00207781
-9.2280e-04,0.00180344
-9.2260e-04,0.00182031
-9.2240e-04,0.00184969
-9.2220e-04,0.0018275
-9.2200e-04,0.00195375
-9.2180e-04,0.00173625
-9.2160e-04,0.00177219
-9.2140e-04,0.00186844
-9.2120e-04,0.00162594
-9.2100e-04,0.00180094
-9.2080e-04,0.00161469
-9.2060e-04,0.00160438
-9.2040e-04,0.00150469
-9.2020e-04,0.00178156
-9.2000e-04,0.0016925
-9.1980e-04,0.00186688
-9.1960e-04,0.00164
-9.1940e-04,0.00178563
-9.1920e-04,0.00184125
-9.1900e-04,0.00178594
-9.1880e-04,0.00198813
-9.1860e-04,0.00185969
-9.1840e-04,0.00175781
-9.1820e-04,0.0018475
-9.1800e-04,0.00161688
-9.1780e-04,0.001705
-9.1760e-04,0.00175125
-9.1740e-04,0.00189688
-9.1720e-04,0.00158469
-9.1700e-04,0.0018425
-9.1680e-04,0.00146938
-9.1660e-04,0.00188125
-9.1640e-04,0.00164969
-9.1620e-04,0.00197969
-9.1600e-04,0.00183156
-9.1580e-04,0.00183625
-9.1560e-04,0.00144188
-9.1540e-04,0.00189719
-9.1520e-04,0.0015425
-9.1500e-04,0.00197594
-9.1480e-04,0.00177281
-9.1460e-04,0.00178031
-9.1440e-04,0.00172281
-9.1420e-04,0.00157281
-9.1400e-04,0.00185281
-9.1380e-04,0.00179125
-9.1360e-04,0.00169188
-9.1340e-04,0.00164469
-9.1320e-04,0.00176781
-9.1300e-04,0.00200969
-9.1280e-04,0.00195594
-9.1260e-04,0.0017175
-9.1240e-04,0.0017175
-9.1220e-04,0.00193875
-9.1200e-04,0.00183688
-9.1180e-04,0.0018225
-9.1160e-04,0.00175688
-9.1140e-04,0.001715
-9.1120e-04,0.00172594
-9.1100e-04,0.00188031
-9.1080e-04,0.00190969
-9.1060e-04,0.00169781
-9.1040e-04,0.00189
-9.1020e-04,0.00204813
-9.1000e-04,0.00189938
-9.0980e-04,0.00188688
-9.0960e-04,0.00218688
-9.0940e-04,0.00187313
-9.0920e-04,0.0019525
-9.0900e-04,0.00177531
-9.0880e-04,0.001835
-9.0860e-04,0.00186719
-9.0840e-04,0.00191281
-9.0820e-04,0.00173938
-9.0800e-04,0.00165906
-9.0780e-04,0.00177969
-9.0760e-04,0.00203656
-9.0740e-04,0.00158938
-9.0720e-04,0.00168781
-9.0700e-04,0.00169438
-9.0680e-04,0.00171594
-9.0660e-04,0.00169594
-9.0640e-04,0.00178063
-9.0620e-04,0.00168594
-9.0600e-04,0.0016825
-9.0580e-04,0.00163813
-9.0560e-04,0.00203781
-9.0540e-04,0.00177219
-9.0520e-04,0.00194656
-9.0500e-04,0.00182656
-9.0480e-04,0.00186313
-9.0460e-04,0.00166375
-9.0440e-04,0.001955
-9.0420e-04,0.00183219
-9.0400e-04,0.00181063
-9.0380e-04,0.00171063
-9.0360e-04,0.00200063
-9.0340e-04,0.00186063
-9.0320e-04,0.00182
-9.0300e-04,0.00187813
-9.0280e-04,0.00201781
-9.0260e-04,0.001945
-9.0240e-04,0.00177969
-9.0220e-04,0.00186219
-9.0200e-04,0.00167
-9.0180e-04,0.00173531
-9.0160e-04,0.00163313
-9.0140e-04,0.00186
-9.0120e-04,0.00185781
-9.0100e-04,0.00178625
-9.0080e-04,0.00182563
-9.0060e-04,0.001995
-9.0040e-04,0.0018475
-9.0020e-04,0.0017625
-9.0000e-04,0.00190625
-8.9980e-04,0.0020125
-8.9960e-04,0.00192844
-8.9940e-04,0.00193563
-8.9920e-04,0.00209469
-8.9900e-04,0.00187094
-8.9880e-04,0.00185969
-8.9860e-04,0.00189906
-8.9840e-04,0.0019425
-8.9820e-04,0.00184781
-8.9800e-04,0.00177844
-8.9780e-04,0.00195344
-8.9760e-04,0.00186781
-8.9740e-04,0.00196656
-8.9720e-04,0.00208844
-8.9700e-04,0.001925
-8.9680e-04,0.00175688
-8.9660e-04,0.00188469
-8.9640e-04,0.00199844
-8.9620e-04,0.0016875
-8.9600e-04,0.00191094
-8.9580e-04,0.00190781
-8.9560e-04,0.00206781
-8.9540e-04,0.00210531
-8.9520e-04,0.00186406
-8.9500e-04,0.00214438
-8.9480e-04,0.00208344
-8.9460e-04,0.00189875
-8.9440e-04,0.00191813
-8.9420e-04,0.00194313
-8.9400e-04,0.00202719
-8.9380e-04,0.0018975
-8.9360e-04,0.00214281
-8.9340e-04,0.00202031
-8.9320e-04,0.00182219
-8.9300e-04,0.00189813
-8.9280e-04,0.00191531
-8.9260e-04,0.00183813
-8.9240e-04,0.00204937
-8.9220e-04,0.0020625
-8.9200e-04,0.00216281
-8.9180e-04,0.00209031
-8.9160e-04,0.00205313
-8.9140e-04,0.00157469
-8.9120e-04,0.00207563
-8.9100e-04,0.00179219
-8.9080e-04,0.00192344
-8.9060e-04,0.00210688
-8.9040e-04,0.00219625
-8.9020e-04,0.00190844
-8.9000e-04,0.00180156
-8.8980e-04,0.00203031
-8.8960e-04,0.00193938
-8.8940e-04,0.00195719
-8.8920e-04,0.00183094
-8.8900e-04,0.001795
-8.8880e-04,0.00183563
-8.8860e-04,0.00192688
-8.8840e-04,0.00176719
-8.8820e-04,0.00195688
-8.8800e-04,0.00204438
-8.8780e-04,0.00174656
-8.8760e-04,0.00198969
-8.8740e-04,0.00206156
-8.8720e-04,0.00187563
-8.8700e-04,0.00189688
-8.8680e-04,0.00212156
-8.8660e-04,0.00211
-8.8640e-04,0.00212875
-8.8620e-04,0.00184563
-8.8600e-04,0.00195719
-8.8580e-04,0.00183188
-8.8560e-04,0.0017675
-8.8540e-04,0.00213563
-8.8520e-04,0.00216625
-8.8500e-04,0.00213219
-8.8480e-04,0.00198906
-8.8460e-04,0.00189469
-8.8440e-04,0.00193313
-8.8420e-04,0.00199281
-8.8400e-04,0.001835
-8.8380e-04,0.00183844
-8.8360e-04,0.001925
-8.8340e-04,0.00196875
-8.8320e-04,0.001865
-8.8300e-04,0.00189844
-8.8280e-04,0.00221813
-8.8260e-04,0.00190469
-8.8240e-04,0.00181781
-8.8220e-04,0.00182875
-8.8200e-04,0.00180406
-8.8180e-04,0.00187375
-8.8160e-04,0.00201125
-8.8140e-04,0.00191563
-8.8120e-04,0.00185531
-8.8100e-04,0.00187406
-8.8080e-04,0.001885
-8.8060e-04,0.00209344
-8.8040e-04,0.00185406
-8.8020e-04,0.00185625
-8.8000e-04,0.00194406
-8.7980e-04,0.00203781
-8.7960e-04,0.00196906
-8.7940e-04,0.00213813
-8.7920e-04,0.0019375
-8.7900e-04,0.00195781
-8.7880e-04,0.00194438
-8.7860e-04,0.00195063
-8.7840e-04,0.00200531
-8.7820e-04,0.00195562
-8.7800e-04,0.00184063
-8.7780e-04,0.00183375
-8.7760e-04,0.00218219
-8.7740e-04,0.00216219
-8.7720e-04,0.00183063
-8.7700e-04,0.00185625
-8.7680e-04,0.00195125
-8.7660e-04,0.00187188
-8.7640e-04,0.00184438
-8.7620e-04,0.00205187
-8.7600e-04,0.00199781
-8.7580e-04,0.00196281
-8.7560e-04,0.00192469
-8.7540e-04,0.00201125
-8.7520e-04,0.0020575
-8.7500e-04,0.00200469
-8.7480e-04,0.00201656
-8.7460e-04,0.00192656
-8.7440e-04,0.00198094
-8.7420e-04,0.00196188
-8.7400e-04,0.00195344
-8.7380e-04,0.00198844
-8.7360e-04,0.0019225
-8.7340e-04,0.00213188
-8.7320e-04,0.00196281
-8.7300e-04,0.00201781
-8.7280e-04,0.00192156
-8.7260e-04,0.00198094
-8.7240e-04,0.00206438
-8.7220e-04,0.00202719
-8.7200e-04,0.00200156
-8.7180e-04,0.00216219
-8.7160e-04,0.00201688
-8.7140e-04,0.00187469
-8.7120e-04,0.00187125
-8.7100e-04,0.00212531
-8.7080e-04,0.00193594
-8.7060e-04,0.0018975
-8.7040e-04,0.00193719
-8.7020e-04,0.0020225
-8.7000e-04,0.00194344
-8.6980e-04,0.00216156
-8.6960e-04,0.00199406
-8.6940e-04,0.00189219
-8.6920e-04,0.00179781
-8.6900e-04,0.00232031
-8.6880e-04,0.00192844
-8.6860e-04,0.00188125
-8.6840e-04,0.00204219
-8.6820e-04,0.00194
-8.6800e-04,0.00181438
-8.6780e-04,0.00207
-8.6760e-04,0.00199906
-8.6740e-04,0.00194594
-8.6720e-04,0.00199313
-8.6700e-04,0.00188688
-8.6680e-04,0.00206469
-8.6660e-04,0.00206656
-8.6640e-04,0.00201625
-8.6620e-04,0.00218906
-8.6600e-04,0.00199844
-8.6580e-04,0.00227344
-8.6560e-04,0.00195656
-8.6540e-04,0.00205125
-8.6520e-04,0.00186406
-8.6500e-04,0.00217563
-8.6480e-04,0.00182063
-8.6460e-04,0.00204531
-8.6440e-04,0.00195
-8.6420e-04,0.00207438
-8.6400e-04,0.00218281
-8.6380e-04,0.0018475
-8.6360e-04,0.00234656
-8.6340e-04,0.00210219
-8.6320e-04,0.00206844
-8.6300e-04,0.00204281
-8.6280e-04,0.00186719
-8.6260e-04,0.00210344
-8.6240e-04,0.002085
-8.6220e-04,0.00201906
-8.6200e-04,0.00217344
-8.6180e-04,0.00212875
-8.6160e-04,0.0021525
-8.6140e-04,0.00214469
-8.6120e-04,0.0020225
-8.6100e-04,0.00223906
-8.6080e-04,0.00204625
-8.6060e-04,0.00223438
-8.6040e-04,0.00211188
-8.6020e-04,0.00195688
-8.6000e-04,0.00219156
-8.5980e-04,0.00211969
-8.5960e-04,0.00202719
-8.5940e-04,0.00219844
-8.5920e-04,0.00218219
-8.5900e-04,0.00213969
-8.5880e-04,0.001995
-8.5860e-04,0.00211219
-8.5840e-04,0.00223625
-8.5820e-04,0.00200375
-8.5800e-04,0.00217
-8.5780e-04,0.00200813
-8.5760e-04,0.00188906
-8.5740e-04,0.0020525
-8.5720e-04,0.00218938
-8.5700e-04,0.00225156
-8.5680e-04,0.002325
-8.5660e-04,0.00220469
-8.5640e-04,0.00207438
-8.5620e-04,0.00193875
-8.5600e-04,0.00227031
-8.5580e-04,0.00207688
-8.5560e-04,0.00232219
-8.5540e-04,0.00229688
-8.5520e-04,0.00205063
-8.5500e-04,0.00227312
-8.5480e-04,0.00212
-8.5460e-04,0.00240875
-8.5440e-04,0.00228656
-8.5420e-04,0.00198594
-8.5400e-04,0.00223656
-8.5380e-04,0.00223813
-8.5360e-04,0.00214562
-8.5340e-04,0.00225406
-8.5320e-04,0.00227969
-8.5300e-04,0.00234125
-8.5280e-04,0.00240875
-8.5260e-04,0.00210688
-8.5240e-04,0.00199781
-8.5220e-04,0.00230219
-8.5200e-04,0.00219563
-8.5180e-04,0.00205625
-8.5160e-04,0.00229969
-8.5140e-04,0.00238688
-8.5120e-04,0.00233313
-8.5100e-04,0.00235531
-8.5080e-04,0.0023675
-8.5060e-04,0.00218906
-8.5040e-04,0.00239906
-8.5020e-04,0.00206031
-8.5000e-04,0.00239469
-8.4980e-04,0.00212281
-8.4960e-04,0.00219906
-8.4940e-04,0.00239813
-8.4920e-04,0.002435
-8.4900e-04,0.00238125
-8.4880e-04,0.00235938
-8.4860e-04,0.00205406
-8.4840e-04,0.00238906
-8.4820e-04,0.00211844
-8.4800e-04,0.00229562
-8.4780e-04,0.00230406
-8.4760e-04,0.00229188
-8.4740e-04,0.00233344
-8.4720e-04,0.00254625
-8.4700e-04,0.00232938
-8.4680e-04,0.00227281
-8.4660e-04,0.00235281
-8.4640e-04,0.00245469
-8.4620e-04,0.00236781
-8.4600e-04,0.00224281
-8.4580e-04,0.00229031
-8.4560e-04,0.00236844
-8.4540e-04,0.00248281
-8.4520e-04,0.002335
-8.4500e-04,0.00228656
-8.4480e-04,0.00226469
-8.4460e-04,0.00223469
-8.4440e-04,0.00248031
-8.4420e-04,0.00227281
-8.4400e-04,0.00255563
-8.4380e-04,0.00237406
-8.4360e-04,0.00202281
-8.4340e-04,0.00222906
-8.4320e-04,0.00230813
-8.4300e-04,0.00224719
-8.4280e-04,0.00236688
-8.4260e-04,0.00222781
-8.4240e-04,0.0025
-8.4220e-04,0.00270688
-8.4200e-04,0.00244563
-8.4180e-04,0.00261063
-8.4160e-04,0.0022125
-8.4140e-04,0.00231094
-8.4120e-04,0.00254031
-8.4100e-04,0.00246344
-8.4080e-04,0.00230156
-8.4060e-04,0.00255125
-8.4040e-04,0.00250469
-8.4020e-04,0.00232656
-8.4000e-04,0.00229219
-8.3980e-04,0.00228938
-8.3960e-04,0.00237531
-8.3940e-04,0.00224375
-8.3920e-04,0.00255
-8.3900e-04,0.00256781
-8.3880e-04,0.00245781
-8.3860e-04,0.00237094
-8.3840e-04,0.00258688
-8.3820e-04,0.00249031
-8.3800e-04,0.0026125
-8.3780e-04,0.00235875
-8.3760e-04,0.00246562
-8.3740e-04,0.00238125
-8.3720e-04,0.00253063
-8.3700e-04,0.00261156
-8.3680e-04,0.00249938
-8.3660e-04,0.00258375
-8.3640e-04,0.00235594
-8.3620e-04,0.0023975
-8.3600e-04,0.00245719
-8.3580e-04,0.00236594
-8.3560e-04,0.00240844
-8.3540e-04,0.00247813
-8.3520e-04,0.00261563
-8.3500e-04,0.00266813
-8.3480e-04,0.00242125
-8.3460e-04,0.0025975
-8.3440e-04,0.00252156
-8.3420e-04,0.00282094
-8.3400e-04,0.00247313
-8.3380e-04,0.00247344
-8.3360e-04,0.00255969
-8.3340e-04,0.00245781
-8.3320e-04,0.00252938
-8.3300e-04,0.00275
-8.3280e-04,0.00247875
-8.3260e-04,0.00233219
-8.3240e-04,0.00242563
-8.3220e-04,0.00263313
-8.3200e-04,0.00257156
-8.3180e-04,0.00246313
-8.3160e-04,0.00244063
-8.3140e-04,0.00241438
-8.3120e-04,0.00257125
-8.3100e-04,0.00272719
-8.3080e-04,0.00246406
-8.3060e-04,0.0027075
-8.3040e-04,0.00246781
-8.3020e-04,0.0023875
-8.3000e-04,0.00230219
-8.2980e-04,0.00259531
-8.2960e-04,0.00264813
-8.2940e-04,0.0025475
-8.2920e-04,0.00249188
-8.2900e-04,0.00237438
-8.2880e-04,0.00255594
-8.2860e-04,0.00252563
-8.2840e-04,0.00246063
-8.2820e-04,0.00263219
-8.2800e-04,0.00260344
-8.2780e-04,0.0023775
-8.2760e-04,0.00256563
-8.2740e-04,0.00244125
